{
  "commonOptionsStore": {
    "buttonActionLibrary": "", 
    "buttonActionDevice": "", 
    "individualDeviceOptions": false
  }, 
  "updateOptionsStore": {
    "firmwareUpdateCheckLastTime": 1514365502, 
    "doFirmwareUpdateCheck": false, 
    "doEarlyFirmwareUpdate": false
  }, 
  "Devices": {
    "e2badee9-bbad-40e8-9b5d-49845d44af60": {
      "location_code": "main", 
      "serial_no": "613A2B2018567", 
      "type": "Kobo Glo", 
      "active": true, 
      "uuid": "e2badee9-bbad-40e8-9b5d-49845d44af60", 
      "name": "Kobo Glo"
    }
  }, 
  "backupOptionsStore": {
    "backupZipDatabase": true, 
    "backupCopiesToKeepSpin": 5, 
    "backupDestDirectory": "", 
    "doDailyBackp": false, 
    "backupEachCOnnection": false
  }
}