{Intel/Mesa Intel(R) HD Graphics 620 (KBL GT2)/4.6 (Core Profile) Mesa 23.0.4-0ubuntu1~23.04.1}=SUPPORTED
{Intel/Mesa Intel(R) HD Graphics 620 (KBL GT2)/4.6 (Core Profile) Mesa 24.0.5-1ubuntu1}=SUPPORTED
{Intel/Mesa Intel(R) HD Graphics 620 (KBL GT2)/4.6 (Core Profile) Mesa 24.0.9-0ubuntu0.1}=SUPPORTED
{Intel/Mesa Intel(R) HD Graphics 620 (KBL GT2)/4.6 (Core Profile) Mesa 24.0.9-0ubuntu0.2}=SUPPORTED
