
** 2016-09-01 14:00:26.782076 **:
MarGo: MarGo build failed
cmd: `['', 'build', '-tags', '', '-v', '-o', 'gosublime.margo_r16.07.09-1_go?.exe', 'disposa.blue/cmd/margo']`
stdout: `

`
stderr: `

`
exception: `Cannot find command `go``
--------------------------------

** 2016-09-01 14:00:26.790214 **:
MarGo: Missing required environment variables: GOROOT GOPATH
See the `Quirks` section of USAGE.md for info
--------------------------------

** 2016-09-01 14:00:49.964855 **:
MarGo: MarGo build failed
cmd: `['', 'build', '-tags', '', '-v', '-o', 'gosublime.margo_r16.07.09-1_go?.exe', 'disposa.blue/cmd/margo']`
stdout: `

`
stderr: `

`
exception: `Cannot find command `go``
--------------------------------

** 2016-09-01 14:00:49.968126 **:
MarGo: Missing required environment variables: GOROOT GOPATH
See the `Quirks` section of USAGE.md for info
--------------------------------

** 2016-09-01 14:07:51.249050 **:
MarGo: Missing required environment variables: GOPATH
See the `Quirks` section of USAGE.md for info
--------------------------------

** 2016-09-01 14:20:08.053624 **:
MarGo: Missing required environment variables: GOPATH
See the `Quirks` section of USAGE.md for info
--------------------------------

** 2016-09-05 09:49:57.316972 **:
MarGo: Missing required environment variables: GOPATH
See the `Quirks` section of USAGE.md for info
--------------------------------

** 2016-10-11 09:42:48.844036 **:
MarGo: MarGo build failed
cmd: `['', 'build', '-tags', '', '-v', '-o', 'gosublime.margo_r16.07.09-1_go?.exe', 'disposa.blue/cmd/margo']`
stdout: `

`
stderr: `

`
exception: `Cannot find command `go``
--------------------------------

** 2016-10-11 09:42:48.886327 **:
MarGo: Missing required environment variables: GOROOT
See the `Quirks` section of USAGE.md for info
--------------------------------

** 2016-10-11 11:18:40.884766 **:
MarGo: MarGo build failed
cmd: `['', 'build', '-tags', '', '-v', '-o', 'gosublime.margo_r16.07.09-1_go?.exe', 'disposa.blue/cmd/margo']`
stdout: `

`
stderr: `

`
exception: `Cannot find command `go``
--------------------------------

** 2016-10-11 11:18:40.949734 **:
MarGo: Missing required environment variables: GOROOT
See the `Quirks` section of USAGE.md for info
--------------------------------

** 2016-10-14 15:09:49.717891 **:
MarGo: MarGo build failed
cmd: `['', 'build', '-tags', '', '-v', '-o', 'gosublime.margo_r16.07.09-1_go?.exe', 'disposa.blue/cmd/margo']`
stdout: `

`
stderr: `

`
exception: `Cannot find command `go``
--------------------------------

** 2016-10-14 15:09:49.786834 **:
MarGo: Missing required environment variables: GOROOT
See the `Quirks` section of USAGE.md for info
--------------------------------
